{
  "_class": "group",
  "do_objectID": "8CB07A3B-DAC6-49A6-9B4C-E5331ACFA304",
  "exportOptions": {
    "_class": "exportOptions",
    "exportFormats": [
    ],
    "includedLayerIds": [
    ],
    "layerOptions": 0,
    "shouldTrim": false
  },
  "frame": {
    "_class": "rect",
    "constrainProportions": false,
    "height": 28,
    "width": 527,
    "x": 607,
    "y": 1212
  },
  "hasClickThrough": false,
  "isFlippedHorizontal": false,
  "isFlippedVertical": false,
  "isLocked": false,
  "isVisible": true,
  "layerListExpandedType": 2,
  "layers": [
    {
      "class": "shapeGroup",
      "id": "39425C66-527D-4F6A-8082-6165869ECB34"
    },
    {
      "class": "shapeGroup",
      "id": "84B63148-2D63-4733-80E7-50056D3FE14E"
    },
    {
      "class": "shapeGroup",
      "id": "7D096C96-1BC4-4CFA-BB56-8AE62024D0BD"
    },
    {
      "class": "text",
      "id": "456A33EE-9D01-4C74-8B72-D6CB4AD8C1FB"
    }
  ],
  "name": "new_epic copy 20",
  "nameIsFixed": true,
  "resizingConstraint": 63,
  "resizingType": 0,
  "rotation": 0,
  "shouldBreakMaskChain": false,
  "style": {
    "_class": "style",
    "endDecorationType": 0,
    "miterLimit": 10,
    "startDecorationType": 0
  }
}