{
  "_class": "shapePath",
  "booleanOperation": -1,
  "do_objectID": "82101CCF-DDF0-4E34-BC13-454707C39028",
  "edited": true,
  "exportOptions": {
    "_class": "exportOptions",
    "exportFormats": [
    ],
    "includedLayerIds": [
    ],
    "layerOptions": 0,
    "shouldTrim": false
  },
  "frame": {
    "_class": "rect",
    "constrainProportions": false,
    "height": 12,
    "width": 6.974658589913616,
    "x": 7.025341410086384,
    "y": 0
  },
  "isFlippedHorizontal": false,
  "isFlippedVertical": false,
  "isLocked": false,
  "isVisible": true,
  "layerListExpandedType": 0,
  "name": "Path",
  "nameIsFixed": false,
  "path": {
    "_class": "path",
    "isClosed": true,
    "pointRadiusBehaviour": 1,
    "points": [
      {
        "_class": "curvePoint",
        "cornerRadius": 0,
        "curveFrom": "{0.3473631196488956, 0.5}",
        "curveMode": 1,
        "curveTo": "{0.3473631196488956, 0.5}",
        "hasCurveFrom": false,
        "hasCurveTo": false,
        "point": "{0.3473631196488956, 0.5}"
      },
      {
        "_class": "curvePoint",
        "cornerRadius": 0,
        "curveFrom": "{1.0140297863155623, 0.11063954954197829}",
        "curveMode": 4,
        "curveTo": "{0.95791064105331336, 0.14341541305992087}",
        "hasCurveFrom": true,
        "hasCurveTo": false,
        "point": "{0.95791064105331336, 0.14341541305992087}"
      },
      {
        "_class": "curvePoint",
        "cornerRadius": 0,
        "curveFrom": "{0.90164760054680215, -0.0081939658794856832}",
        "curveMode": 2,
        "curveTo": "{1.0140297863155623, 0.057441801832086622}",
        "hasCurveFrom": true,
        "hasCurveTo": true,
        "point": "{0.95791064105331336, 0.02458189763845705}"
      },
      {
        "_class": "curvePoint",
        "cornerRadius": 0,
        "curveFrom": "{0.75444276566659496, 0.02458189763845705}",
        "curveMode": 4,
        "curveTo": "{0.81056191092884378, -0.0081939658794856832}",
        "hasCurveFrom": false,
        "hasCurveTo": true,
        "point": "{0.75444276566659496, 0.02458189763845705}"
      },
      {
        "_class": "curvePoint",
        "cornerRadius": 0,
        "curveFrom": "{0.014101733937693343, 0.45697117404823939}",
        "curveMode": 4,
        "curveTo": "{0.042161306568817801, 0.44058324228926804}",
        "hasCurveFrom": true,
        "hasCurveTo": false,
        "point": "{0.042161306568817801, 0.44058324228926804}"
      },
      {
        "_class": "curvePoint",
        "cornerRadius": 0,
        "curveFrom": "{0, 0.5215144129758803}",
        "curveMode": 2,
        "curveTo": "{0, 0.47848558702411964}",
        "hasCurveFrom": true,
        "hasCurveTo": true,
        "point": "{0, 0.5}"
      },
      {
        "_class": "curvePoint",
        "cornerRadius": 0,
        "curveFrom": "{0.042161306568817801, 0.55941675771073196}",
        "curveMode": 4,
        "curveTo": "{0.014101733937693343, 0.54302882595176061}",
        "hasCurveFrom": false,
        "hasCurveTo": true,
        "point": "{0.042161306568817801, 0.55941675771073196}"
      },
      {
        "_class": "curvePoint",
        "cornerRadius": 0,
        "curveFrom": "{0.81056191092884378, 1.0081939658794856}",
        "curveMode": 4,
        "curveTo": "{0.75444276566659496, 0.97541810236154314}",
        "hasCurveFrom": true,
        "hasCurveTo": false,
        "point": "{0.75444276566659496, 0.97541810236154314}"
      },
      {
        "_class": "curvePoint",
        "cornerRadius": 0,
        "curveFrom": "{1.0140297863155623, 0.94264223884360032}",
        "curveMode": 2,
        "curveTo": "{0.90164760054680215, 1.0081939658794856}",
        "hasCurveFrom": true,
        "hasCurveTo": true,
        "point": "{0.95791064105331336, 0.97541810236154314}"
      },
      {
        "_class": "curvePoint",
        "cornerRadius": 0,
        "curveFrom": "{0.95791064105331336, 0.856584586940079}",
        "curveMode": 4,
        "curveTo": "{1.0140297863155623, 0.8893604504580217}",
        "hasCurveFrom": false,
        "hasCurveTo": true,
        "point": "{0.95791064105331336, 0.856584586940079}"
      }
    ]
  },
  "resizingConstraint": 63,
  "resizingType": 0,
  "rotation": 0,
  "shouldBreakMaskChain": false
}