{
  "_class": "group",
  "do_objectID": "F28FF598-0B9D-4B5F-B8B0-779F49BEE60C",
  "exportOptions": {
    "_class": "exportOptions",
    "exportFormats": [
    ],
    "includedLayerIds": [
    ],
    "layerOptions": 0,
    "shouldTrim": false
  },
  "frame": {
    "_class": "rect",
    "constrainProportions": false,
    "height": 28,
    "width": 527,
    "x": 607,
    "y": 1212
  },
  "hasClickThrough": false,
  "isFlippedHorizontal": false,
  "isFlippedVertical": false,
  "isLocked": false,
  "isVisible": true,
  "layerListExpandedType": 2,
  "layers": [
    {
      "class": "shapeGroup",
      "id": "0D7FD742-1F0B-4900-B6DD-D2021B889AC6"
    },
    {
      "class": "shapeGroup",
      "id": "4B4D09F4-883F-4C5A-884D-6B1BA768B022"
    },
    {
      "class": "shapeGroup",
      "id": "87DC64B7-7E25-4372-9412-E172496BC4AA"
    },
    {
      "class": "text",
      "id": "294D7574-14C8-4E11-BE7E-2070195B938C"
    }
  ],
  "name": "new_epic copy 20",
  "nameIsFixed": true,
  "resizingConstraint": 63,
  "resizingType": 0,
  "rotation": 0,
  "shouldBreakMaskChain": false,
  "style": {
    "_class": "style",
    "endDecorationType": 0,
    "miterLimit": 10,
    "startDecorationType": 0
  }
}