{
  "_class": "shapeGroup",
  "clippingMaskMode": 0,
  "do_objectID": "7716D424-18C9-468C-A5F8-C138AE29FB75",
  "exportOptions": {
    "_class": "exportOptions",
    "exportFormats": [
    ],
    "includedLayerIds": [
    ],
    "layerOptions": 0,
    "shouldTrim": false
  },
  "frame": {
    "_class": "rect",
    "constrainProportions": false,
    "height": 14,
    "width": 16,
    "x": 0,
    "y": 1
  },
  "hasClickThrough": false,
  "hasClippingMask": true,
  "isFlippedHorizontal": false,
  "isFlippedVertical": false,
  "isLocked": false,
  "isVisible": true,
  "layerListExpandedType": 1,
  "layers": [
    {
      "class": "shapePath",
      "id": "559CF8F5-0C2E-4BA6-AEDC-B41C60176AA6"
    },
    {
      "class": "shapePath",
      "id": "69F8E7B3-7085-4E30-B298-A7E5F4901EC8"
    },
    {
      "class": "shapePath",
      "id": "D25FF2F3-E3FB-4B17-9965-74B8F32DF1E6"
    },
    {
      "class": "shapePath",
      "id": "9AD1DD8B-FEA0-4AB0-913B-885DBED78677"
    }
  ],
  "name": "Mask",
  "nameIsFixed": false,
  "resizingConstraint": 63,
  "resizingType": 0,
  "rotation": 0,
  "shouldBreakMaskChain": false,
  "style": {
    "_class": "style",
    "endDecorationType": 0,
    "fills": [
      {
        "_class": "fill",
        "color": {
          "_class": "color",
          "alpha": 1,
          "blue": 0,
          "green": 0,
          "red": 0
        },
        "fillType": 0,
        "isEnabled": true,
        "noiseIndex": 0,
        "noiseIntensity": 0,
        "patternFillType": 1,
        "patternTileScale": 1
      }
    ],
    "miterLimit": 10,
    "startDecorationType": 0
  },
  "windingRule": 1
}