{
  "_class": "shapeGroup",
  "clippingMaskMode": 0,
  "do_objectID": "9C4EAAE9-0015-46F8-BFA2-F589121990C3",
  "exportOptions": {
    "_class": "exportOptions",
    "exportFormats": [
    ],
    "includedLayerIds": [
    ],
    "layerOptions": 0,
    "shouldTrim": false
  },
  "frame": {
    "_class": "rect",
    "constrainProportions": false,
    "height": 16,
    "width": 16,
    "x": 0,
    "y": 0
  },
  "hasClickThrough": false,
  "hasClippingMask": true,
  "isFlippedHorizontal": false,
  "isFlippedVertical": false,
  "isLocked": false,
  "isVisible": true,
  "layerListExpandedType": 0,
  "layers": [
    {
      "class": "shapePath",
      "id": "EBA9F89A-4C75-4041-AD67-66CF2B59396A"
    },
    {
      "class": "shapePath",
      "id": "D6448843-1EB7-4677-B258-92ED0BDCC625"
    },
    {
      "class": "oval",
      "id": "A264DF26-4C12-487F-8F81-BB234C58616E"
    },
    {
      "class": "oval",
      "id": "57769F68-E48E-4411-BC26-9CCE918860F4"
    },
    {
      "class": "shapePath",
      "id": "367A0B69-FBB2-4AA7-A4CA-B45FBB80C987"
    }
  ],
  "name": "Mask",
  "nameIsFixed": false,
  "resizingConstraint": 63,
  "resizingType": 0,
  "rotation": 0,
  "shouldBreakMaskChain": false,
  "style": {
    "_class": "style",
    "endDecorationType": 0,
    "fills": [
      {
        "_class": "fill",
        "color": {
          "_class": "color",
          "alpha": 1,
          "blue": 0,
          "green": 0,
          "red": 0
        },
        "fillType": 0,
        "isEnabled": true,
        "noiseIndex": 0,
        "noiseIntensity": 0,
        "patternFillType": 1,
        "patternTileScale": 1
      }
    ],
    "miterLimit": 10,
    "startDecorationType": 0
  },
  "windingRule": 0
}