{
  "_class": "group",
  "do_objectID": "BAEAE7C2-A813-4665-B91F-43129759127F",
  "exportOptions": {
    "_class": "exportOptions",
    "exportFormats": [
    ],
    "includedLayerIds": [
    ],
    "layerOptions": 0,
    "shouldTrim": false
  },
  "frame": {
    "_class": "rect",
    "constrainProportions": false,
    "height": 40,
    "width": 220,
    "x": 0,
    "y": 0
  },
  "hasClickThrough": false,
  "isFlippedHorizontal": false,
  "isFlippedVertical": false,
  "isLocked": false,
  "isVisible": true,
  "layerListExpandedType": 0,
  "layers": [
    {
      "class": "shapeGroup",
      "id": "EC891D73-8A25-4617-9CF4-529BCEFD5E30"
    },
    {
      "class": "text",
      "id": "9A32A9B5-2BF5-406A-9063-BC1C3E7A471E"
    },
    {
      "class": "group",
      "id": "17D98A92-3A1C-4735-8B72-E13700AD1F40"
    }
  ],
  "name": "💡tab",
  "nameIsFixed": false,
  "resizingConstraint": 63,
  "resizingType": 0,
  "rotation": 0,
  "shouldBreakMaskChain": false,
  "style": {
    "_class": "style",
    "endDecorationType": 0,
    "miterLimit": 10,
    "startDecorationType": 0
  }
}