{
  "_class": "symbolInstance",
  "do_objectID": "12F12DC1-29E6-4E22-A3F8-2470E064702A",
  "exportOptions": {
    "_class": "exportOptions",
    "exportFormats": [
    ],
    "includedLayerIds": [
    ],
    "layerOptions": 0,
    "shouldTrim": false
  },
  "frame": {
    "_class": "rect",
    "constrainProportions": false,
    "height": 40,
    "width": 220,
    "x": 0,
    "y": 320
  },
  "horizontalSpacing": 0,
  "isFlippedHorizontal": false,
  "isFlippedVertical": false,
  "isLocked": false,
  "isVisible": true,
  "layerListExpandedType": 0,
  "masterInfluenceEdgeMaxXPadding": 1,
  "masterInfluenceEdgeMaxYPadding": 1,
  "masterInfluenceEdgeMinXPadding": 0,
  "masterInfluenceEdgeMinYPadding": 0,
  "name": "sidebar/molecules/menu-item/",
  "nameIsFixed": true,
  "overrides": {
    "15654E37-957C-42B5-8981-C4F1B5B12658": {
      "25A88055-6A60-4B36-AE64-58B10DD13770": {
        "symbolID": "EAB165A5-6100-4D37-9D0B-ED03DA773770"
      },
      "45D85E86-3F15-4530-AB33-7A4216134B7A": {
        "symbolID": "5A49560B-8379-495D-95CB-DDEB53CA71BE"
      },
      "9169C1E5-326D-463D-A1F8-2E5FE6A84E1E": {
        "symbolID": "5A49560B-8379-495D-95CB-DDEB53CA71BE"
      },
      "A8E361BB-156C-4D8E-803A-1DF6FFA01F33": {
        "symbolID": "82060AFB-5C5F-4178-A8BD-C12F1F115034"
      },
      "symbolID": "99BD3E1B-B3D0-43AA-8B2F-77EEB6E92D31"
    },
    "69B9D507-A5EB-45D9-81F5-4C6E1AAB425A": {
      "7B3078E7-F805-4EE8-8848-5FA084C6A7B7": "Pipelines",
      "9505DB84-2594-410F-BAC6-F8A173ACEADD": {
        "706F70A0-5B98-462A-8C2A-076C43F4CB5F": "122",
        "symbolID": "BC27A1BD-D6FA-475E-B977-F87D5DF8FE3D"
      },
      "A2A022FF-7C80-411C-8C24-E06CA8249433": "Merge Requests",
      "B2492B1E-B47B-47FE-B174-5C892C637E8B": "Pipelines",
      "FB150F4B-17F2-4F09-96C6-AEDDAD8D8DFC": {
        "symbolID": ""
      },
      "symbolID": "6BE6638E-FB17-4F24-AF5E-C66C7397C86C"
    }
  },
  "resizingConstraint": 63,
  "resizingType": 0,
  "rotation": 0,
  "shouldBreakMaskChain": false,
  "style": {
    "_class": "style",
    "endDecorationType": 0,
    "miterLimit": 10,
    "startDecorationType": 0
  },
  "symbolID": "42FC1E5F-60CA-4B2C-8A9E-AC9131844DB4",
  "verticalSpacing": 0
}