{
  "_class": "group",
  "do_objectID": "1BF00C37-F4DC-4603-98D5-A5A7ED7BA66D",
  "exportOptions": {
    "_class": "exportOptions",
    "exportFormats": [
    ],
    "includedLayerIds": [
    ],
    "layerOptions": 0,
    "shouldTrim": false
  },
  "frame": {
    "_class": "rect",
    "constrainProportions": false,
    "height": 32,
    "width": 65,
    "x": 296,
    "y": 112
  },
  "hasClickThrough": false,
  "isFlippedHorizontal": false,
  "isFlippedVertical": false,
  "isLocked": false,
  "isVisible": true,
  "layerListExpandedType": 0,
  "layers": [
    {
      "class": "shapeGroup",
      "id": "F6BB7855-00C9-471C-8010-B3C5CAD539D1"
    },
    {
      "class": "text",
      "id": "77F62A1F-B010-40AE-B8B1-0C36808FD887"
    }
  ],
  "name": "global-components/buttons/variations/group/middle",
  "nameIsFixed": false,
  "resizingConstraint": 63,
  "resizingType": 0,
  "rotation": 0,
  "shouldBreakMaskChain": false,
  "style": {
    "_class": "style",
    "endDecorationType": 0,
    "miterLimit": 10,
    "startDecorationType": 0
  }
}