{
  "_class": "shapeGroup",
  "clippingMaskMode": 0,
  "do_objectID": "02CD67C6-578A-4BD9-BFA8-5BC943A1B83A",
  "exportOptions": {
    "_class": "exportOptions",
    "exportFormats": [
    ],
    "includedLayerIds": [
    ],
    "layerOptions": 0,
    "shouldTrim": false
  },
  "frame": {
    "_class": "rect",
    "constrainProportions": false,
    "height": 32,
    "width": 32,
    "x": 0,
    "y": 0
  },
  "hasClickThrough": false,
  "hasClippingMask": false,
  "isFlippedHorizontal": false,
  "isFlippedVertical": false,
  "isLocked": false,
  "isVisible": true,
  "layerListExpandedType": 1,
  "layers": [
    {
      "class": "rectangle",
      "id": "2D380956-DCB1-4B9F-BA50-73B489AD474F"
    }
  ],
  "name": "themes/indigo/$indigo-100 :: EBEBFA",
  "nameIsFixed": true,
  "resizingConstraint": 63,
  "resizingType": 0,
  "rotation": 0,
  "shouldBreakMaskChain": false,
  "style": {
    "sharedObjectID": "504B2AA1-FBF0-43A8-A29B-C72AC89DC9C4"
  },
  "windingRule": 1
}