{
  "_class": "group",
  "do_objectID": "CC1F2884-A76C-4044-8F01-5BB628CC86FF",
  "exportOptions": {
    "_class": "exportOptions",
    "exportFormats": [
    ],
    "includedLayerIds": [
    ],
    "layerOptions": 0,
    "shouldTrim": false
  },
  "frame": {
    "_class": "rect",
    "constrainProportions": false,
    "height": 24,
    "width": 775,
    "x": 159,
    "y": 170
  },
  "hasClickThrough": false,
  "isFlippedHorizontal": false,
  "isFlippedVertical": false,
  "isLocked": false,
  "isVisible": true,
  "layerListExpandedType": 2,
  "layers": [
    {
      "class": "shapeGroup",
      "id": "E2884158-36B4-4F4D-9524-3430D4DD1847"
    },
    {
      "class": "shapeGroup",
      "id": "CA55EE23-1D5D-46E6-8257-BC6F9B61405F"
    },
    {
      "class": "text",
      "id": "45DE2E51-0B9F-4362-86EC-DB990F8C95CB"
    }
  ],
  "name": "epic",
  "nameIsFixed": true,
  "resizingConstraint": 63,
  "resizingType": 0,
  "rotation": 0,
  "shouldBreakMaskChain": false,
  "style": {
    "_class": "style",
    "endDecorationType": 0,
    "miterLimit": 10,
    "startDecorationType": 0
  }
}